…
``` r
#這是R Code Chunk
salary<-select(X107,`大職業別`)
salary$salaryrate<-((X107$`大學-薪資`)/(x104$`大學-薪資`))

salary<-salary[complete.cases(salary$salaryrate),]
rate<-filter( salary , salaryrate > 1.05 )

highsalaryrate<-arrange(rate,desc(salaryrate))

highsalaryrate
```

    ## # A tibble: 53 x 2
    ##    大職業別                                salaryrate
    ##    <chr>                                        <dbl>
    ##  1 專業科學及技術服務業-服務及銷售工作人員       1.16
    ##  2 教育服務業-服務及銷售工作人員                 1.13
    ##  3 不動產業-技術員及助理專業人員                 1.13
    ##  4 住宿及餐飲業-服務及銷售工作人員               1.11
    ##  5 藝術娛樂及休閒服務業-事務支援人員             1.10
    ##  6 金融及保險業-技藝機械設備操作及組裝人員       1.10
    ##  7 教育服務業                                    1.10
    ##  8 教育服務業-事務支援人員                       1.10
    ##  9 用水供應及污染整治業-專業人員                 1.09
    ## 10 教育服務業-專業人員                           1.09
    ## # ... with 43 more rows
…
